EESchema Schematic File Version 4
EELAYER 30 0
EELAYER END
$Descr A4 11693 8268
encoding utf-8
Sheet 1 2
Title "Battery powered Arduino with clock and extended EEPROM"
Date "2021-07-18"
Rev "1"
Comp ""
Comment1 "Designed by Marios Pakas"
Comment2 ""
Comment3 ""
Comment4 ""
$EndDescr
$Comp
L Memory_EEPROM:24LC1025 U1
U 1 1 60F64071
P 1400 7000
F 0 "U1" H 1400 7481 50  0000 C CNN
F 1 "24LC1025" H 1400 7390 50  0000 C CNN
F 2 "Package_SO:SOIJ-8_5.3x5.3mm_P1.27mm" H 1400 7000 50  0001 C CNN
F 3 "http://ww1.microchip.com/downloads/en/DeviceDoc/21941B.pdf" H 1400 7000 50  0001 C CNN
	1    1400 7000
	1    0    0    -1  
$EndComp
$Comp
L Device:Crystal Y1
U 1 1 60F6552F
P 1200 2550
F 0 "Y1" H 1200 2818 50  0000 C CNN
F 1 "Crystal32768KHz" H 1200 2727 50  0000 C CNN
F 2 "Crystal:Crystal_SMD_EuroQuartz_EQ161-2Pin_3.2x1.5mm_HandSoldering" H 1200 2550 50  0001 C CNN
F 3 "~" H 1200 2550 50  0001 C CNN
	1    1200 2550
	0    1    1    0   
$EndComp
$Comp
L Device:Crystal Y2
U 1 1 60F65A91
P 6550 4200
F 0 "Y2" H 6550 4468 50  0000 C CNN
F 1 "Crystal 16MHz" H 6550 4377 50  0000 C CNN
F 2 "Crystal:Crystal_SMD_EuroQuartz_MJ-4Pin_5.0x3.2mm_HandSoldering" H 6550 4200 50  0001 C CNN
F 3 "~" H 6550 4200 50  0001 C CNN
	1    6550 4200
	0    1    1    0   
$EndComp
$Comp
L Device:C C1
U 1 1 60F66011
P 5850 4600
F 0 "C1" H 5965 4646 50  0000 L CNN
F 1 "22pF" H 5965 4555 50  0000 L CNN
F 2 "Capacitor_SMD:C_0805_2012Metric_Pad1.18x1.45mm_HandSolder" H 5888 4450 50  0001 C CNN
F 3 "~" H 5850 4600 50  0001 C CNN
	1    5850 4600
	0    1    1    0   
$EndComp
$Comp
L Device:C C2
U 1 1 60F66481
P 5850 3750
F 0 "C2" H 5965 3796 50  0000 L CNN
F 1 "22pF" H 5965 3705 50  0000 L CNN
F 2 "Capacitor_SMD:C_0805_2012Metric_Pad1.18x1.45mm_HandSolder" H 5888 3600 50  0001 C CNN
F 3 "~" H 5850 3750 50  0001 C CNN
	1    5850 3750
	0    1    1    0   
$EndComp
$Comp
L Device:CP1 C3
U 1 1 60F66D94
P 6750 1550
F 0 "C3" H 6865 1596 50  0000 L CNN
F 1 "10uF" H 6865 1505 50  0000 L CNN
F 2 "Capacitor_SMD:C_0805_2012Metric_Pad1.18x1.45mm_HandSolder" H 6750 1550 50  0001 C CNN
F 3 "~" H 6750 1550 50  0001 C CNN
	1    6750 1550
	1    0    0    -1  
$EndComp
$Comp
L Device:R R1
U 1 1 60F676AA
P 6450 3350
F 0 "R1" H 6520 3396 50  0000 L CNN
F 1 "330Ohm" H 6520 3305 50  0000 L CNN
F 2 "Resistor_SMD:R_0805_2012Metric_Pad1.20x1.40mm_HandSolder" V 6380 3350 50  0001 C CNN
F 3 "~" H 6450 3350 50  0001 C CNN
	1    6450 3350
	0    1    1    0   
$EndComp
$Comp
L Device:R R2
U 1 1 60F67A04
P 10100 4000
F 0 "R2" H 10170 4046 50  0000 L CNN
F 1 "10kOhm" H 10170 3955 50  0000 L CNN
F 2 "Resistor_SMD:R_0805_2012Metric_Pad1.20x1.40mm_HandSolder" V 10030 4000 50  0001 C CNN
F 3 "~" H 10100 4000 50  0001 C CNN
	1    10100 4000
	1    0    0    -1  
$EndComp
$Comp
L Device:LED D1
U 1 1 60F67F5A
P 7150 3350
F 0 "D1" H 7143 3567 50  0000 C CNN
F 1 "LED" H 7143 3476 50  0000 C CNN
F 2 "LED_SMD:LED_0805_2012Metric_Pad1.15x1.40mm_HandSolder" H 7150 3350 50  0001 C CNN
F 3 "~" H 7150 3350 50  0001 C CNN
	1    7150 3350
	1    0    0    -1  
$EndComp
$Comp
L Device:Battery BT1
U 1 1 60F6871B
P 7400 1550
F 0 "BT1" H 7508 1596 50  0000 L CNN
F 1 "Battery 3V" H 7508 1505 50  0000 L CNN
F 2 "Connector_PinHeader_2.54mm:PinHeader_1x02_P2.54mm_Vertical" V 7400 1610 50  0001 C CNN
F 3 "~" V 7400 1610 50  0001 C CNN
	1    7400 1550
	1    0    0    -1  
$EndComp
$Comp
L Mavioux_Library:DS1337S+ U2
U 1 1 60F6F23B
P 2550 1950
F 0 "U2" H 2550 2156 50  0000 C CNN
F 1 "DS1337S+" H 2550 2065 50  0000 C CNN
F 2 "Package_SO:SO-8_5.3x6.2mm_P1.27mm" H 2550 1950 50  0001 C CNN
F 3 "/http://www.farnell.com/datasheets/74348.pdf?_ga=2.123338187.175978087.1534816722-1235492530.1514578079" H 2550 1950 50  0001 C CNN
	1    2550 1950
	1    0    0    -1  
$EndComp
Wire Wire Line
	12900 1050 12900 1150
$Comp
L power:GNDPWR #PWR0101
U 1 1 60F8D31E
P 12900 1150
F 0 "#PWR0101" H 12900 950 50  0001 C CNN
F 1 "GNDPWR" H 12904 996 50  0000 C CNN
F 2 "" H 12900 1100 50  0001 C CNN
F 3 "" H 12900 1100 50  0001 C CNN
	1    12900 1150
	1    0    0    -1  
$EndComp
Wire Wire Line
	12900 1050 13950 1050
Wire Wire Line
	13450 1200 13950 1200
Wire Wire Line
	13450 1350 13950 1350
Wire Wire Line
	13450 1500 13950 1500
Wire Wire Line
	13450 2050 13950 2050
Wire Wire Line
	13950 2200 13450 2200
Wire Wire Line
	13450 2900 13950 2900
Wire Wire Line
	13950 3050 13450 3050
Wire Wire Line
	13950 3200 13450 3200
Wire Wire Line
	13950 3650 13450 3650
Wire Wire Line
	13950 3800 13450 3800
Wire Wire Line
	13950 3950 13450 3950
Wire Wire Line
	13950 4100 13450 4100
Wire Wire Line
	13950 4300 13450 4300
Wire Wire Line
	13950 4450 13450 4450
Wire Wire Line
	13950 4600 13450 4600
$Comp
L MCU_Microchip_ATmega:ATmega328P-AU U4
U 1 1 60F61D89
P 8950 4150
F 0 "U4" H 8950 2561 50  0000 C CNN
F 1 "ATmega328P-AU" H 8950 2470 50  0000 C CNN
F 2 "Package_QFP:TQFP-32_7x7mm_P0.8mm" H 8950 4150 50  0001 C CIN
F 3 "http://ww1.microchip.com/downloads/en/DeviceDoc/ATmega328_P%20AVR%20MCU%20with%20picoPower%20Technology%20Data%20Sheet%2040001984A.pdf" H 8950 4150 50  0001 C CNN
	1    8950 4150
	-1   0    0    -1  
$EndComp
Wire Wire Line
	6550 4050 6550 3750
Wire Wire Line
	6550 3750 6000 3750
Wire Wire Line
	6550 4350 6550 4600
Wire Wire Line
	6550 4600 6000 4600
Wire Wire Line
	5700 4600 5400 4600
Wire Wire Line
	5400 3750 5700 3750
Wire Wire Line
	5400 3750 5400 4600
Wire Wire Line
	5400 4600 5400 4900
Connection ~ 5400 4600
$Comp
L power:GNDPWR #PWR0102
U 1 1 60FA546A
P 5400 4900
F 0 "#PWR0102" H 5400 4700 50  0001 C CNN
F 1 "GNDPWR" H 5404 4746 50  0000 C CNN
F 2 "" H 5400 4850 50  0001 C CNN
F 3 "" H 5400 4850 50  0001 C CNN
	1    5400 4900
	1    0    0    -1  
$EndComp
Wire Wire Line
	6550 3750 6550 3550
Wire Wire Line
	6550 3550 8350 3550
Connection ~ 6550 3750
Wire Wire Line
	6550 4600 7100 4600
Wire Wire Line
	7100 4600 7100 3650
Wire Wire Line
	7100 3650 8350 3650
Connection ~ 6550 4600
Wire Wire Line
	7300 3350 7300 3450
Wire Wire Line
	7300 3450 7650 3450
Wire Wire Line
	6600 3350 7000 3350
Wire Wire Line
	6300 3350 6100 3350
Wire Wire Line
	6100 3350 6100 3400
$Comp
L power:GNDPWR #PWR0103
U 1 1 60FB5373
P 6100 3400
F 0 "#PWR0103" H 6100 3200 50  0001 C CNN
F 1 "GNDPWR" H 6104 3246 50  0000 C CNN
F 2 "" H 6100 3350 50  0001 C CNN
F 3 "" H 6100 3350 50  0001 C CNN
	1    6100 3400
	1    0    0    -1  
$EndComp
Wire Wire Line
	10100 4450 10100 4150
Wire Wire Line
	8350 4450 10100 4450
Wire Wire Line
	9550 2950 10100 2950
Wire Wire Line
	10100 2950 10100 3850
Wire Wire Line
	10100 2950 10250 2950
Connection ~ 10100 2950
Text Label 10250 2950 0    50   ~ 0
Vcc
Wire Wire Line
	8950 5650 8950 6000
$Comp
L power:GNDPWR #PWR0104
U 1 1 60FCF37A
P 8950 6150
F 0 "#PWR0104" H 8950 5950 50  0001 C CNN
F 1 "GNDPWR" H 8954 5996 50  0000 C CNN
F 2 "" H 8950 6100 50  0001 C CNN
F 3 "" H 8950 6100 50  0001 C CNN
	1    8950 6150
	1    0    0    -1  
$EndComp
$Comp
L power:PWR_FLAG #FLG0101
U 1 1 60FD07D0
P 8950 6000
F 0 "#FLG0101" H 8950 6075 50  0001 C CNN
F 1 "PWR_FLAG" V 8950 6128 50  0000 L CNN
F 2 "" H 8950 6000 50  0001 C CNN
F 3 "~" H 8950 6000 50  0001 C CNN
	1    8950 6000
	0    1    1    0   
$EndComp
Connection ~ 8950 6000
Wire Wire Line
	8950 6000 8950 6150
Wire Wire Line
	6750 1400 6750 1150
Wire Wire Line
	6750 1150 7400 1150
Wire Wire Line
	7400 1150 7400 1350
Wire Wire Line
	6750 1700 6750 1900
Wire Wire Line
	6750 1900 7400 1900
Wire Wire Line
	7400 1900 7400 1750
Wire Wire Line
	7400 1900 7400 2200
Connection ~ 7400 1900
$Comp
L power:GNDPWR #PWR0105
U 1 1 60FD70E5
P 7400 2200
F 0 "#PWR0105" H 7400 2000 50  0001 C CNN
F 1 "GNDPWR" H 7404 2046 50  0000 C CNN
F 2 "" H 7400 2150 50  0001 C CNN
F 3 "" H 7400 2150 50  0001 C CNN
	1    7400 2200
	1    0    0    -1  
$EndComp
Wire Wire Line
	7400 1150 8500 1150
Wire Wire Line
	8950 1150 8950 2650
Connection ~ 7400 1150
Wire Wire Line
	8850 2650 8950 2650
Connection ~ 8950 2650
$Comp
L power:PWR_FLAG #FLG0102
U 1 1 60FDA546
P 8500 1150
F 0 "#FLG0102" H 8500 1225 50  0001 C CNN
F 1 "PWR_FLAG" H 8500 1323 50  0000 C CNN
F 2 "" H 8500 1150 50  0001 C CNN
F 3 "~" H 8500 1150 50  0001 C CNN
	1    8500 1150
	1    0    0    -1  
$EndComp
Connection ~ 8500 1150
Wire Wire Line
	8500 1150 8950 1150
Wire Wire Line
	1200 2400 1200 2300
Wire Wire Line
	1200 2300 2200 2300
Wire Wire Line
	1200 2700 1200 2950
Wire Wire Line
	1200 2950 1700 2950
Wire Wire Line
	1700 2950 1700 2500
Wire Wire Line
	1700 2500 2200 2500
Wire Wire Line
	2550 2200 2550 1450
Wire Wire Line
	2550 2850 2550 3500
Text Label 2550 1450 2    50   ~ 0
Vcc
$Comp
L power:GNDPWR #PWR0106
U 1 1 60FE2A42
P 2550 3500
F 0 "#PWR0106" H 2550 3300 50  0001 C CNN
F 1 "GNDPWR" H 2554 3346 50  0000 C CNN
F 2 "" H 2550 3450 50  0001 C CNN
F 3 "" H 2550 3450 50  0001 C CNN
	1    2550 3500
	1    0    0    -1  
$EndComp
Text Label 2200 2700 2    50   ~ 0
Vcc
NoConn ~ 2900 2300
Text Label 2900 2500 2    50   ~ 0
SCK
Text Label 2900 2700 2    50   ~ 0
SDA
Wire Wire Line
	1400 7300 2050 7300
Wire Wire Line
	2650 7300 2650 7250
Wire Wire Line
	1800 7100 2050 7100
Wire Wire Line
	2050 7100 2050 7300
Connection ~ 2050 7300
Wire Wire Line
	2050 7300 2400 7300
Wire Wire Line
	1400 6700 1400 6300
Text Label 2650 6200 2    50   ~ 0
Vcc
Text Label 1400 6300 2    50   ~ 0
Vcc
Text Label 1000 6900 2    50   ~ 0
Vcc
Text Label 1000 7000 2    50   ~ 0
Vcc
Text Label 1000 7100 2    50   ~ 0
Vcc
Text Label 1800 6900 0    50   ~ 0
SDA
Text Label 1800 7000 0    50   ~ 0
SCK
Text Label 2250 6850 2    50   ~ 0
Vcc
Text Label 2250 6950 2    50   ~ 0
GND
Text Label 2250 7050 2    50   ~ 0
Vcc
Text Label 3050 6850 0    50   ~ 0
SDA
Wire Wire Line
	2650 6650 2650 6200
$Comp
L Memory_EEPROM:24LC1025 U3
U 1 1 60F7035A
P 2650 6950
F 0 "U3" H 2650 7431 50  0000 C CNN
F 1 "24LC1025" H 2650 7340 50  0000 C CNN
F 2 "Package_SO:SOIJ-8_5.3x5.3mm_P1.27mm" H 2650 6950 50  0001 C CNN
F 3 "http://ww1.microchip.com/downloads/en/DeviceDoc/21941B.pdf" H 2650 6950 50  0001 C CNN
	1    2650 6950
	1    0    0    -1  
$EndComp
Text Label 3050 6950 0    50   ~ 0
SCK
Wire Wire Line
	3050 7050 3050 7300
Wire Wire Line
	3050 7300 2650 7300
Connection ~ 2650 7300
Wire Notes Line
	900  4050 3250 4050
Wire Notes Line
	3250 4050 3250 1050
Wire Notes Line
	3250 1050 900  1050
Wire Notes Line
	900  1050 900  4050
Wire Notes Line
	700  7500 3350 7500
Wire Notes Line
	700  6000 3350 6000
Wire Notes Line
	3350 6000 3350 7500
Wire Notes Line
	700  6000 700  7500
Wire Notes Line
	4700 850  4700 6400
Text Label 13450 1200 2    50   ~ 0
Vcc
Text Label 13450 1350 2    50   ~ 0
SDA
Text Label 13450 1500 2    50   ~ 0
SCK
Text Label 13450 2050 2    50   ~ 0
TX
Text Label 13450 2200 2    50   ~ 0
RX
Text Label 13450 2900 2    50   ~ 0
RESET
Text Label 13450 3050 2    50   ~ 0
MOSI
Text Label 13450 3200 2    50   ~ 0
MISO
Text Label 13450 3650 2    50   ~ 0
D2
Text Label 13450 3800 2    50   ~ 0
D3
Text Label 13450 3950 2    50   ~ 0
D4
Text Label 13450 4100 2    50   ~ 0
D5
Text Label 13450 4300 2    50   ~ 0
D6
Text Label 13450 4450 2    50   ~ 0
D7
Text Label 13450 4600 2    50   ~ 0
D8
NoConn ~ 8350 3050
NoConn ~ 8350 3150
NoConn ~ 8350 3850
NoConn ~ 8350 3950
NoConn ~ 8350 4050
NoConn ~ 8350 4150
NoConn ~ 8350 4350
NoConn ~ 9550 3150
NoConn ~ 9550 3250
$Comp
L power:+5V #PWR0107
U 1 1 6102497C
P 5150 7000
F 0 "#PWR0107" H 5150 6850 50  0001 C CNN
F 1 "+5V" H 5165 7173 50  0000 C CNN
F 2 "" H 5150 7000 50  0001 C CNN
F 3 "" H 5150 7000 50  0001 C CNN
	1    5150 7000
	1    0    0    -1  
$EndComp
Wire Wire Line
	5150 7000 5150 7150
Wire Wire Line
	5150 7150 5250 7150
Text Label 5250 7150 0    50   ~ 0
Vcc
$Comp
L power:GNDPWR #PWR0108
U 1 1 6102EA84
P 5600 7100
F 0 "#PWR0108" H 5600 6900 50  0001 C CNN
F 1 "GNDPWR" H 5604 6946 50  0000 C CNN
F 2 "" H 5600 7050 50  0001 C CNN
F 3 "" H 5600 7050 50  0001 C CNN
	1    5600 7100
	1    0    0    -1  
$EndComp
Text Label 5600 6900 0    50   ~ 0
GND
$Comp
L power:GNDPWR #PWR0109
U 1 1 6103206E
P 2400 7300
F 0 "#PWR0109" H 2400 7100 50  0001 C CNN
F 1 "GNDPWR" H 2404 7146 50  0000 C CNN
F 2 "" H 2400 7250 50  0001 C CNN
F 3 "" H 2400 7250 50  0001 C CNN
	1    2400 7300
	1    0    0    -1  
$EndComp
Connection ~ 2400 7300
Wire Wire Line
	2400 7300 2650 7300
$Comp
L power:PWR_FLAG #FLG0103
U 1 1 610336B8
P 5150 7150
F 0 "#FLG0103" H 5150 7225 50  0001 C CNN
F 1 "PWR_FLAG" H 5150 7323 50  0000 C CNN
F 2 "" H 5150 7150 50  0001 C CNN
F 3 "~" H 5150 7150 50  0001 C CNN
	1    5150 7150
	-1   0    0    1   
$EndComp
Connection ~ 5150 7150
Wire Wire Line
	5600 6900 5600 7100
Wire Notes Line
	10550 850  10550 6450
Wire Notes Line
	4700 850  10550 850 
Wire Notes Line
	4700 6400 10550 6400
$Sheet
S 13950 250  6850 7800
U 60F7AF7D
F0 "Connectors" 50
F1 "Connectors.sch" 50
F2 "GND" I L 13950 1050 50 
F3 "Vcc" I L 13950 1200 50 
F4 "SDA" I L 13950 1350 50 
F5 "SCK" I L 13950 1500 50 
F6 "MOSI" I L 13950 3050 50 
F7 "MISO" I L 13950 3200 50 
F8 "RESET" I L 13950 2900 50 
F9 "RX" I L 13950 2200 50 
F10 "TX" I L 13950 2050 50 
F11 "D2" I L 13950 3650 50 
F12 "D3" I L 13950 3800 50 
F13 "D4" I L 13950 3950 50 
F14 "D5" I L 13950 4100 50 
F15 "D6" I L 13950 4300 50 
F16 "D7" I L 13950 4450 50 
F17 "D8" I L 13950 4600 50 
$EndSheet
Text Label 8200 3250 2    50   ~ 0
MOSI
Wire Wire Line
	8200 3250 8350 3250
Text Label 8200 3350 2    50   ~ 0
MISO
Wire Wire Line
	8200 3350 8350 3350
Text Label 7650 3350 2    50   ~ 0
SCK
Wire Wire Line
	7650 3350 7650 3450
Connection ~ 7650 3450
Wire Wire Line
	7650 3450 8350 3450
Text Label 8200 4250 2    50   ~ 0
SDA
Text Label 8200 4450 2    50   ~ 0
RESET
Text Label 8200 4650 2    50   ~ 0
RX
Text Label 8200 4750 2    50   ~ 0
TX
Text Label 8200 4850 2    50   ~ 0
D2
Wire Wire Line
	8200 4850 8350 4850
Wire Wire Line
	8200 4750 8350 4750
Wire Wire Line
	8200 4650 8350 4650
Wire Wire Line
	8200 4450 8350 4450
Connection ~ 8350 4450
Wire Wire Line
	8200 4250 8350 4250
Text Label 8200 4950 2    50   ~ 0
D3
Text Label 8200 5050 2    50   ~ 0
D4
Text Label 8200 5150 2    50   ~ 0
D5
Text Label 8200 5250 2    50   ~ 0
D6
Text Label 8200 5350 2    50   ~ 0
D7
Wire Wire Line
	8200 4950 8350 4950
Wire Wire Line
	8200 5050 8350 5050
Wire Wire Line
	8200 5150 8350 5150
Wire Wire Line
	8200 5250 8350 5250
Wire Wire Line
	8200 5350 8350 5350
Text Label 8150 2950 2    50   ~ 0
D8
Wire Wire Line
	8150 2950 8350 2950
$EndSCHEMATC
